Projeto_2/simulation/qsim/projeto_2.msim.vcd
$comment
	File created using the following command:
		vcd file projeto_2.msim.vcd -direction
$end
$date
	Wed Nov 15 14:31:23 2017
$end
$version
	ModelSim Version 10.5b
$end
$timescale
	1ps
$end

$scope module projeto_2_vlg_vec_tst $end
$var reg 1 ! BP $end
$var reg 1 " CK $end
$var reg 1 # DC $end
$var reg 1 $ IC $end
$var reg 1 % INI $end
$var reg 1 & PGR $end
$var reg 1 ' ST $end
$var wire 1 ( LD [11] $end
$var wire 1 ) LD [10] $end
$var wire 1 * LD [9] $end
$var wire 1 + LD [8] $end
$var wire 1 , LD [7] $end
$var wire 1 - LD [6] $end
$var wire 1 . LD [5] $end
$var wire 1 / LD [4] $end
$var wire 1 0 LD [3] $end
$var wire 1 1 LD [2] $end
$var wire 1 2 LD [1] $end
$var wire 1 3 LD [0] $end
$var wire 1 4 TFP [3] $end
$var wire 1 5 TFP [2] $end
$var wire 1 6 TFP [1] $end
$var wire 1 7 TFP [0] $end
$var wire 1 8 TFS [3] $end
$var wire 1 9 TFS [2] $end
$var wire 1 : TFS [1] $end
$var wire 1 ; TFS [0] $end
$var wire 1 < TFT [3] $end
$var wire 1 = TFT [2] $end
$var wire 1 > TFT [1] $end
$var wire 1 ? TFT [0] $end
$var wire 1 @ TR [3] $end
$var wire 1 A TR [2] $end
$var wire 1 B TR [1] $end
$var wire 1 C TR [0] $end

$scope module i1 $end
$var wire 1 D gnd $end
$var wire 1 E vcc $end
$var wire 1 F unknown $end
$var tri1 1 G devclrn $end
$var tri1 1 H devpor $end
$var tri1 1 I devoe $end
$var wire 1 J LD[11]~output_o $end
$var wire 1 K LD[10]~output_o $end
$var wire 1 L LD[9]~output_o $end
$var wire 1 M LD[8]~output_o $end
$var wire 1 N LD[7]~output_o $end
$var wire 1 O LD[6]~output_o $end
$var wire 1 P LD[5]~output_o $end
$var wire 1 Q LD[4]~output_o $end
$var wire 1 R LD[3]~output_o $end
$var wire 1 S LD[2]~output_o $end
$var wire 1 T LD[1]~output_o $end
$var wire 1 U LD[0]~output_o $end
$var wire 1 V TFP[3]~output_o $end
$var wire 1 W TFP[2]~output_o $end
$var wire 1 X TFP[1]~output_o $end
$var wire 1 Y TFP[0]~output_o $end
$var wire 1 Z TFS[3]~output_o $end
$var wire 1 [ TFS[2]~output_o $end
$var wire 1 \ TFS[1]~output_o $end
$var wire 1 ] TFS[0]~output_o $end
$var wire 1 ^ TFT[3]~output_o $end
$var wire 1 _ TFT[2]~output_o $end
$var wire 1 ` TFT[1]~output_o $end
$var wire 1 a TFT[0]~output_o $end
$var wire 1 b TR[3]~output_o $end
$var wire 1 c TR[2]~output_o $end
$var wire 1 d TR[1]~output_o $end
$var wire 1 e TR[0]~output_o $end
$var wire 1 f CK~input_o $end
$var wire 1 g BP~input_o $end
$var wire 1 h INI~input_o $end
$var wire 1 i inst6|E.TFT_comp_0~q $end
$var wire 1 j inst6|E.inicio~q $end
$var wire 1 k inst6|WideOr39~0_combout $end
$var wire 1 l inst6|RS~combout $end
$var wire 1 m inst6|SP~0_combout $end
$var wire 1 n inst6|SP~q $end
$var wire 1 o inst8|count[24]~32_combout $end
$var wire 1 p IC~input_o $end
$var wire 1 q inst6|E.carrega_TR0~0_combout $end
$var wire 1 r inst6|E.carrega_TR0~q $end
$var wire 1 s DC~input_o $end
$var wire 1 t inst6|Selector2~0_combout $end
$var wire 1 u PGR~input_o $end
$var wire 1 v inst6|Selector7~0_combout $end
$var wire 1 w inst6|E.carrega_TFP~q $end
$var wire 1 x ST~input_o $end
$var wire 1 y inst6|Selector8~0_combout $end
$var wire 1 z inst6|E.TFP_reduzido~q $end
$var wire 1 { inst6|Selector4~0_combout $end
$var wire 1 | inst6|E.vrf_menor_TP~q $end
$var wire 1 } inst6|WideOr23~0_combout $end
$var wire 1 ~ inst6|Selector5~0_combout $end
$var wire 1 !! inst6|Selector2~1_combout $end
$var wire 1 "! inst6|WideOr21~0_combout $end
$var wire 1 #! inst6|WideOr25~0_combout $end
$var wire 1 $! inst6|WideOr25~combout $end
$var wire 1 %! inst|Mux1~0_combout $end
$var wire 1 &! inst|Mux2~0_combout $end
$var wire 1 '! inst|Mux3~0_combout $end
$var wire 1 (! inst7|Add1~0_combout $end
$var wire 1 )! inst7|Add0~0_combout $end
$var wire 1 *! inst6|WideOr27~0_combout $end
$var wire 1 +! inst6|WideOr29~0_combout $end
$var wire 1 ,! inst6|WideOr31~0_combout $end
$var wire 1 -! inst6|Selector6~0_combout $end
$var wire 1 .! inst6|E.vrf_maior_0~q $end
$var wire 1 /! inst6|WideOr31~1_combout $end
$var wire 1 0! inst7|Equal0~1_combout $end
$var wire 1 1! inst7|Mux2~1_combout $end
$var wire 1 2! inst7|Mux5~0_combout $end
$var wire 1 3! inst7|Mux5~combout $end
$var wire 1 4! inst6|WideOr35~combout $end
$var wire 1 5! inst6|WideOr36~combout $end
$var wire 1 6! inst6|WideOr27~combout $end
$var wire 1 7! inst1|Mux3~0_combout $end
$var wire 1 8! inst6|WideOr37~0_combout $end
$var wire 1 9! inst1|Mux3~1_combout $end
$var wire 1 :! inst7|Add1~1 $end
$var wire 1 ;! inst7|Add1~2_combout $end
$var wire 1 <! inst7|Add0~1 $end
$var wire 1 =! inst7|Add0~2_combout $end
$var wire 1 >! inst7|Mux4~0_combout $end
$var wire 1 ?! inst7|Mux4~1_combout $end
$var wire 1 @! inst7|Mux4~2_combout $end
$var wire 1 A! inst1|Mux2~0_combout $end
$var wire 1 B! inst1|Mux2~1_combout $end
$var wire 1 C! inst7|Add1~3 $end
$var wire 1 D! inst7|Add1~4_combout $end
$var wire 1 E! inst7|Add0~3 $end
$var wire 1 F! inst7|Add0~4_combout $end
$var wire 1 G! inst7|Mux3~0_combout $end
$var wire 1 H! inst7|Mux3~combout $end
$var wire 1 I! inst1|Mux1~0_combout $end
$var wire 1 J! inst1|Mux1~1_combout $end
$var wire 1 K! inst7|LessThan0~0_combout $end
$var wire 1 L! inst7|LessThan0~1_combout $end
$var wire 1 M! inst7|LessThan0~2_combout $end
$var wire 1 N! inst7|Add0~5 $end
$var wire 1 O! inst7|Add0~7 $end
$var wire 1 P! inst7|Add0~8_combout $end
$var wire 1 Q! inst7|Temp~0_combout $end
$var wire 1 R! inst6|Selector5~1_combout $end
$var wire 1 S! inst6|E.dec_TR~q $end
$var wire 1 T! inst6|WideOr34~combout $end
$var wire 1 U! inst|Mux0~0_combout $end
$var wire 1 V! inst7|Add1~5 $end
$var wire 1 W! inst7|Add1~6_combout $end
$var wire 1 X! inst7|Add0~6_combout $end
$var wire 1 Y! inst7|Mux2~2_combout $end
$var wire 1 Z! inst7|Mux2~combout $end
$var wire 1 [! inst1|Mux0~0_combout $end
$var wire 1 \! inst1|Mux0~1_combout $end
$var wire 1 ]! inst7|Equal0~0_combout $end
$var wire 1 ^! inst7|Mux2~0_combout $end
$var wire 1 _! inst6|Logica_de_Estados~2_combout $end
$var wire 1 `! inst6|Selector2~2_combout $end
$var wire 1 a! inst7|Equal1~0_combout $end
$var wire 1 b! inst6|Logica_de_Estados~0_combout $end
$var wire 1 c! inst6|Logica_de_Estados~1_combout $end
$var wire 1 d! inst6|Selector2~3_combout $end
$var wire 1 e! inst6|E.ajuste_TR~q $end
$var wire 1 f! inst6|Selector3~0_combout $end
$var wire 1 g! inst6|Selector3~1_combout $end
$var wire 1 h! inst6|E.inc_TR~q $end
$var wire 1 i! inst7|Mux1~0_combout $end
$var wire 1 j! inst7|Add1~7 $end
$var wire 1 k! inst7|Add1~8_combout $end
$var wire 1 l! inst7|Mux1~1_combout $end
$var wire 1 m! inst7|Equal1~1_combout $end
$var wire 1 n! inst7|Temp~1_combout $end
$var wire 1 o! inst6|E~48_combout $end
$var wire 1 p! inst6|Selector15~0_combout $end
$var wire 1 q! inst6|E.carrega_TFS~q $end
$var wire 1 r! inst6|Selector20~0_combout $end
$var wire 1 s! inst6|Selector20~1_combout $end
$var wire 1 t! inst6|E.tempo_TFS~q $end
$var wire 1 u! inst6|Selector16~0_combout $end
$var wire 1 v! inst6|E.decresce_TFS~q $end
$var wire 1 w! inst6|E.TFS_comp_0~q $end
$var wire 1 x! inst6|Selector18~0_combout $end
$var wire 1 y! inst6|E.ama_TAS~q $end
$var wire 1 z! inst6|WideOr38~0_combout $end
$var wire 1 {! inst6|WideOr38~combout $end
$var wire 1 |! inst8|Equal0~8_combout $end
$var wire 1 }! inst8|count[0]~4_combout $end
$var wire 1 ~! inst8|count[1]~0_combout $end
$var wire 1 !" inst8|count[2]~3_combout $end
$var wire 1 "" inst8|count~1_combout $end
$var wire 1 #" inst8|count[3]~2_combout $end
$var wire 1 $" inst8|Equal0~0_combout $end
$var wire 1 %" inst8|count[4]~6_combout $end
$var wire 1 &" inst8|count[5]~5_combout $end
$var wire 1 '" inst8|Equal0~1_combout $end
$var wire 1 (" inst8|count[6]~10_combout $end
$var wire 1 )" inst8|count[7]~9_combout $end
$var wire 1 *" inst8|count~7_combout $end
$var wire 1 +" inst8|count[8]~8_combout $end
$var wire 1 ," inst8|Equal0~2_combout $end
$var wire 1 -" inst8|count[9]~14_combout $end
$var wire 1 ." inst8|count[10]~13_combout $end
$var wire 1 /" inst8|count~11_combout $end
$var wire 1 0" inst8|count[11]~12_combout $end
$var wire 1 1" inst8|Equal0~3_combout $end
$var wire 1 2" inst8|count[12]~18_combout $end
$var wire 1 3" inst8|count[13]~17_combout $end
$var wire 1 4" inst8|count~15_combout $end
$var wire 1 5" inst8|count[14]~16_combout $end
$var wire 1 6" inst8|Equal0~4_combout $end
$var wire 1 7" inst8|count[15]~22_combout $end
$var wire 1 8" inst8|count[16]~21_combout $end
$var wire 1 9" inst8|count~19_combout $end
$var wire 1 :" inst8|count[17]~20_combout $end
$var wire 1 ;" inst8|Equal0~5_combout $end
$var wire 1 <" inst8|count[18]~26_combout $end
$var wire 1 =" inst8|count[19]~25_combout $end
$var wire 1 >" inst8|count~23_combout $end
$var wire 1 ?" inst8|count[20]~24_combout $end
$var wire 1 @" inst8|Equal0~6_combout $end
$var wire 1 A" inst8|count[21]~30_combout $end
$var wire 1 B" inst8|count[22]~29_combout $end
$var wire 1 C" inst8|count~27_combout $end
$var wire 1 D" inst8|count[23]~28_combout $end
$var wire 1 E" inst8|Equal0~7_combout $end
$var wire 1 F" inst8|count[25]~31_combout $end
$var wire 1 G" inst6|Selector19~0_combout $end
$var wire 1 H" inst6|Selector19~1_combout $end
$var wire 1 I" inst6|Selector19~2_combout $end
$var wire 1 J" inst6|E.tempo_TFP~q $end
$var wire 1 K" inst6|Selector9~0_combout $end
$var wire 1 L" inst6|E.decresce_TFP~q $end
$var wire 1 M" inst6|E.TFP_comp_0~q $end
$var wire 1 N" inst6|Selector11~0_combout $end
$var wire 1 O" inst6|E.ama_TAP~q $end
$var wire 1 P" inst6|Selector12~0_combout $end
$var wire 1 Q" inst6|Selector12~1_combout $end
$var wire 1 R" inst6|E.carrega_TFT~q $end
$var wire 1 S" inst6|Selector21~0_combout $end
$var wire 1 T" inst6|Selector21~1_combout $end
$var wire 1 U" inst6|E.tempo_TFT~q $end
$var wire 1 V" inst6|Selector13~0_combout $end
$var wire 1 W" inst6|E.decresce_TFT~q $end
$var wire 1 X" inst6|WideOr40~0_combout $end
$var wire 1 Y" inst6|WideOr41~0_combout $end
$var wire 1 Z" inst6|WideOr43~0_combout $end
$var wire 1 [" inst6|WideOr45~combout $end
$var wire 1 \" inst6|WideOr46~combout $end
$var wire 1 ]" inst5|R_out [3] $end
$var wire 1 ^" inst5|R_out [2] $end
$var wire 1 _" inst5|R_out [1] $end
$var wire 1 `" inst5|R_out [0] $end
$var wire 1 a" inst4|R_out [3] $end
$var wire 1 b" inst4|R_out [2] $end
$var wire 1 c" inst4|R_out [1] $end
$var wire 1 d" inst4|R_out [0] $end
$var wire 1 e" inst8|count [25] $end
$var wire 1 f" inst8|count [24] $end
$var wire 1 g" inst8|count [23] $end
$var wire 1 h" inst8|count [22] $end
$var wire 1 i" inst8|count [21] $end
$var wire 1 j" inst8|count [20] $end
$var wire 1 k" inst8|count [19] $end
$var wire 1 l" inst8|count [18] $end
$var wire 1 m" inst8|count [17] $end
$var wire 1 n" inst8|count [16] $end
$var wire 1 o" inst8|count [15] $end
$var wire 1 p" inst8|count [14] $end
$var wire 1 q" inst8|count [13] $end
$var wire 1 r" inst8|count [12] $end
$var wire 1 s" inst8|count [11] $end
$var wire 1 t" inst8|count [10] $end
$var wire 1 u" inst8|count [9] $end
$var wire 1 v" inst8|count [8] $end
$var wire 1 w" inst8|count [7] $end
$var wire 1 x" inst8|count [6] $end
$var wire 1 y" inst8|count [5] $end
$var wire 1 z" inst8|count [4] $end
$var wire 1 {" inst8|count [3] $end
$var wire 1 |" inst8|count [2] $end
$var wire 1 }" inst8|count [1] $end
$var wire 1 ~" inst8|count [0] $end
$var wire 1 !# inst2|R_out [3] $end
$var wire 1 "# inst2|R_out [2] $end
$var wire 1 ## inst2|R_out [1] $end
$var wire 1 $# inst2|R_out [0] $end
$var wire 1 %# inst3|R_out [3] $end
$var wire 1 &# inst3|R_out [2] $end
$var wire 1 '# inst3|R_out [1] $end
$var wire 1 (# inst3|R_out [0] $end
$upscope $end
$upscope $end
$enddefinitions $end
#0
$dumpvars
0!
0"
0#
0$
0%
0&
0'
13
12
11
10
0/
0.
0-
0,
0+
0*
0)
1(
07
06
05
04
0;
0:
09
08
0?
0>
0=
0<
0C
0B
0A
0@
0D
1E
xF
1G
1H
1I
1J
0K
0L
0M
0N
0O
0P
0Q
1R
1S
1T
1U
0V
0W
0X
0Y
0Z
0[
0\
0]
0^
0_
0`
0a
0b
0c
0d
0e
0f
0g
0h
0i
0j
1k
0l
0m
0n
0o
0p
1q
0r
0s
0t
0u
0v
0w
0x
0y
0z
0{
0|
0}
0~
0!!
0"!
0#!
0$!
0%!
0&!
0'!
0(!
0)!
1*!
1+!
1,!
0-!
0.!
1/!
10!
01!
02!
03!
14!
15!
06!
07!
18!
09!
1:!
0;!
0<!
0=!
0>!
0?!
0@!
0A!
0B!
0C!
0D!
1E!
0F!
0G!
0H!
0I!
0J!
0K!
0L!
0M!
0N!
1O!
0P!
1Q!
0R!
0S!
1T!
0U!
1V!
0W!
0X!
0Y!
0Z!
0[!
0\!
1]!
0^!
0_!
0`!
1a!
0b!
0c!
0d!
0e!
0f!
0g!
0h!
0i!
0j!
0k!
0l!
1m!
0n!
0o!
0p!
0q!
0r!
0s!
0t!
0u!
0v!
0w!
0x!
0y!
1z!
1{!
0|!
1}!
1~!
0!"
1""
0#"
0$"
0%"
0&"
0'"
0("
0)"
1*"
0+"
0,"
0-"
0."
1/"
00"
01"
02"
03"
14"
05"
06"
07"
08"
19"
0:"
0;"
0<"
0="
1>"
0?"
0@"
0A"
0B"
1C"
0D"
0E"
0F"
0G"
0H"
0I"
0J"
0K"
0L"
0M"
0N"
0O"
0P"
0Q"
0R"
0S"
0T"
0U"
0V"
0W"
0X"
1Y"
1Z"
0["
0\"
0`"
0_"
0^"
0]"
0d"
0c"
0b"
0a"
0~"
0}"
0|"
0{"
0z"
0y"
0x"
0w"
0v"
0u"
0t"
0s"
0r"
0q"
0p"
0o"
0n"
0m"
0l"
0k"
0j"
0i"
0h"
0g"
0f"
0e"
0$#
0##
0"#
0!#
0(#
0'#
0&#
0%#
$end
#5000
1"
1f
#10000
0"
0f
#15000
1"
1f
#20000
0"
0f
#25000
1"
1f
#30000
0"
0f
#35000
1"
1f
#40000
1%
1&
0"
1h
1u
0f
#45000
1"
1f
1r
1j
1#!
1"!
1t
08!
05!
04!
0k
0q
1$!
1%!
1`!
1>!
1'!
1&!
0%!
0]!
1G!
1F!
0V!
1D!
1d!
1?!
12!
00!
1)!
0:!
1(!
1=!
1C!
1;!
1]!
0G!
0F!
1V!
0D!
1n!
1j!
1W!
1H!
0;!
0V!
1D!
0j!
0W!
1k!
0a!
1@!
13!
0H!
1j!
1W!
0k!
1b!
1k!
#50000
0"
0f
#55000
1"
1f
1e!
0r
1$#
1##
1d
1e
0T!
0#!
0"!
17!
1A!
1C
1B
0$!
0?!
0&!
19!
1B!
0>!
0'!
1L!
0C!
1<!
0)!
1:!
0(!
0@!
02!
0<!
1)!
1(!
1M!
1V!
0D!
0E!
0=!
1;!
1E!
1=!
0Q!
0j!
0W!
1F!
03!
0F!
0n!
0k!
1a!
0b!
#60000
0"
0f
#65000
1"
1f
#70000
0"
0f
#75000
1"
1f
#80000
0"
0f
#85000
1"
1f
#90000
0"
0f
#95000
1"
1f
#100000
0"
0f
#105000
1"
1f
#110000
1$
1#
0"
1p
1s
0f
1c!
#115000
1"
1f
#120000
0"
0f
#125000
1"
1f
#130000
0"
0f
#135000
1"
1f
#140000
0"
0f
#145000
1"
1f
#150000
0$
0#
0"
0p
0s
0f
0c!
#155000
1"
1f
#160000
0"
0f
#165000
1"
1f
#170000
0"
0f
#175000
1"
1f
#180000
1#
0"
1s
0f
1c!
1~
0t
0`!
1R!
0d!
#185000
1"
1f
0e!
1S!
0~
1T!
0,!
1#!
1-!
0/!
1$!
0R!
1^!
11!
1>!
1'!
1<!
0)!
0(!
1@!
13!
0E!
0=!
0a!
03!
1F!
1o!
1b!
#190000
0"
0f
#195000
1"
1f
0S!
1.!
0$#
0e
0T!
1,!
0#!
07!
0C
0$!
09!
0>!
0'!
0<!
1)!
0:!
1(!
0)!
1:!
0(!
1E!
1=!
0;!
13!
1;!
0F!
03!
0@!
1a!
1@!
0o!
0b!
0a!
1o!
1b!
#200000
0"
0f
#205000
1"
1f
#210000
0"
0f
#215000
1"
1f
#220000
0#
0"
0s
0f
0c!
0-!
1d!
#225000
1"
1f
1e!
0.!
1t
1/!
0d!
1`!
0^!
01!
1d!
0@!
1a!
0o!
0b!
#230000
0"
0f
#235000
1"
1f
#240000
1#
0"
1s
0f
1c!
1~
0t
0`!
1R!
0d!
#245000
1"
1f
0e!
1S!
0~
1T!
0,!
1#!
1-!
0/!
1$!
0R!
1^!
11!
1>!
1'!
1)!
0:!
1(!
1@!
0;!
0a!
13!
1o!
1b!
0@!
#250000
0"
0f
#255000
1"
1f
0S!
1.!
1$#
0##
0d
1e
0T!
1,!
0#!
17!
0A!
1C
0B
0$!
19!
0B!
0>!
0'!
0L!
10!
1<!
0)!
1:!
0(!
0=!
1C!
1;!
1L!
00!
0<!
1)!
1(!
0M!
0^!
01!
1=!
0C!
0;!
0V!
1D!
03!
1@!
1M!
1^!
11!
0=!
1Q!
1V!
0D!
1j!
1W!
0@!
0Q!
1_!
1n!
0j!
0W!
1k!
1a!
1Z!
13!
0n!
0_!
0o!
0k!
1l!
0b!
0a!
0Z!
1o!
0l!
1b!
#260000
0"
0f
#265000
1"
1f
#270000
0"
0f
#275000
1"
1f
#280000
0"
0f
#285000
1"
1f
#290000
0#
0"
0s
0f
0c!
0-!
1d!
#295000
1"
1f
1e!
0.!
1t
1/!
0d!
1`!
0^!
01!
1d!
03!
1a!
0o!
0b!
#300000
0"
0f
#305000
1"
1f
#310000
1#
0"
1s
0f
1c!
1~
0t
0`!
1R!
0d!
#315000
1"
1f
0e!
1S!
0~
1T!
0,!
1#!
1-!
0/!
1$!
0R!
1^!
11!
1>!
1'!
0L!
10!
1<!
0)!
0(!
13!
0M!
0^!
01!
1=!
0a!
03!
1b!
1Q!
1o!
1a!
0o!
0b!
#320000
0"
0f
#325000
1"
1f
0S!
1.!
0$#
0e
0T!
1,!
0#!
07!
0C
0$!
09!
0>!
0'!
00!
0<!
1)!
0:!
1(!
10!
0)!
1:!
0(!
1n!
1^!
11!
0=!
1C!
1;!
0n!
0^!
01!
0C!
0;!
0m!
1_!
0V!
1D!
1@!
1o!
1m!
0_!
1V!
0D!
1j!
1W!
0a!
0@!
0j!
0W!
1k!
1b!
1a!
0k!
0o!
0b!
#330000
0"
0f
#335000
1"
1f
#340000
0"
0f
#345000
1"
1f
#350000
0"
0f
#355000
1"
1f
#360000
0"
0f
#365000
1"
1f
#370000
0"
0f
#375000
1"
1f
#380000
0"
0f
#385000
1"
1f
#390000
0#
0"
0s
0f
0c!
0-!
1g!
#395000
1"
1f
1h!
0.!
1T!
1#!
1/!
1{
0g!
1$!
1Y!
1G!
1?!
12!
11!
1>!
1'!
00!
1)!
0:!
1(!
1n!
1C!
1;!
13!
0V!
1D!
0a!
1j!
1W!
1b!
1k!
#400000
0"
0f
#405000
1"
1f
0h!
1|
1$#
1e
0Y!
0T!
0G!
0?!
01!
0#!
0,!
1!!
1}
17!
1C
0{
0$!
0/!
0>!
1%!
19!
1R!
1U!
0%!
1^!
02!
11!
0]!
1F!
0D!
10!
1<!
0)!
1:!
0(!
0W!
1X!
0F!
1D!
0m!
0b!
1_!
1=!
0C!
0;!
0R!
03!
1Z!
1@!
1`!
1V!
0D!
0Z!
1H!
0@!
1W!
1d!
0H!
1a!
1Z!
0a!
#410000
0"
0f
#415000
1"
1f
1e!
0|
1t
1,!
0!!
0}
1/!
0U!
0'!
1m!
0_!
0^!
01!
1]!
0j!
0W!
0X!
1L!
00!
0<!
1)!
1(!
1b!
1M!
0k!
0=!
0Z!
0Q!
1a!
0n!
0b!
#420000
0"
0f
#425000
1"
1f
#430000
0"
0f
#435000
1"
1f
#440000
0"
0f
#445000
1"
1f
#450000
0"
0f
#455000
1"
1f
#460000
0"
0f
#465000
1"
1f
#470000
0"
0f
#475000
1"
1f
#480000
0"
0f
#485000
1"
1f
#490000
0"
0f
#495000
1"
1f
#500000
1$
0"
1p
0f
1f!
1c!
0t
0`!
1g!
0d!
#505000
1"
1f
1h!
0e!
1Y!
1T!
1G!
1?!
12!
11!
1#!
0f!
1{
1$!
13!
0g!
1>!
1'!
0a!
0L!
10!
1<!
0)!
0(!
1o!
1b!
0M!
1=!
03!
1Q!
1a!
1@!
0o!
0b!
0a!
1o!
1b!
#510000
0"
0f
#515000
1"
1f
0h!
1|
0$#
1##
1d
0e
0Y!
0T!
0G!
0?!
01!
0#!
0,!
1}
07!
1A!
0C
1B
0$!
0/!
0>!
1%!
09!
1B!
0@!
13!
1U!
1>!
0%!
02!
0]!
1F!
0V!
1D!
1L!
00!
0<!
1)!
0:!
1(!
0E!
0=!
1;!
1j!
1X!
1V!
0D!
1n!
1^!
11!
1E!
1=!
0;!
03!
1k!
1W!
0o!
0m!
0b!
1_!
0F!
1a!
13!
0a!
1Z!
#520000
0"
0f
#525000
1"
1f
#530000
0"
0f
#535000
1"
1f
#540000
0$
0"
0p
0f
0c!
1!!
0{
1`!
1d!
#545000
1"
1f
1e!
0|
1t
1,!
0!!
0}
1/!
0U!
0>!
0'!
1m!
0_!
0^!
01!
1]!
0j!
0W!
0X!
0)!
1:!
0(!
1b!
1M!
0k!
1;!
0Z!
03!
0Q!
1a!
0n!
0b!
#550000
0"
0f
#555000
1"
1f
#560000
1$
0"
1p
0f
1f!
1c!
0t
0`!
1g!
0d!
#565000
1"
1f
1h!
0e!
1Y!
1T!
1G!
1?!
12!
11!
1#!
0f!
1{
1$!
1@!
0g!
1>!
1'!
0a!
1)!
0:!
1(!
1o!
1b!
0;!
13!
#570000
0"
0f
#575000
1"
1f
0h!
1|
1$#
1e
0Y!
0T!
0G!
0?!
01!
0#!
0,!
1}
17!
1C
0$!
0/!
0>!
1%!
19!
0@!
1U!
1>!
0%!
1^!
02!
11!
0]!
1F!
0V!
1D!
1<!
0)!
1:!
0(!
1j!
1X!
0F!
1V!
0D!
0M!
0E!
0=!
1;!
03!
1H!
1k!
1W!
0m!
0b!
1Q!
1F!
0H!
1@!
1n!
1_!
1Z!
0o!
#580000
0"
0f
#585000
1"
1f
#590000
0"
0f
#595000
1"
1f
#600000
0$
0"
0p
0f
0c!
1!!
0{
1`!
1d!
#605000
1"
1f
1e!
0|
1t
1,!
0!!
0}
1/!
0U!
0>!
0'!
1m!
0_!
0^!
01!
1]!
0j!
0W!
0X!
0<!
1)!
1(!
1b!
1M!
0k!
1E!
1=!
0Z!
0@!
0Q!
0F!
1a!
0n!
0b!
#610000
0"
0f
#615000
1"
1f
#620000
1$
0"
1p
0f
1f!
1c!
0t
0`!
1g!
0d!
#625000
1"
1f
1h!
0e!
1Y!
1T!
1G!
1?!
12!
11!
1#!
0f!
1{
1$!
1@!
13!
0g!
1>!
1'!
0a!
1<!
0)!
0(!
1o!
1b!
0E!
0=!
03!
1F!
0@!
1a!
1H!
0o!
0b!
0a!
1o!
1b!
#630000
0"
0f
#635000
1"
1f
0h!
1|
0$#
0##
1"#
1c
0d
0e
0Y!
0T!
0G!
0?!
01!
0#!
0,!
1}
07!
0A!
1I!
0C
0B
1A
0$!
0/!
0>!
1%!
09!
0B!
1J!
0H!
13!
1U!
0%!
1^!
02!
11!
1N!
0L!
0<!
1)!
0:!
1(!
1E!
1=!
0;!
0]!
1j!
1W!
0O!
0N!
1D!
0M!
0=!
1C!
1;!
1k!
1P!
1O!
1X!
0m!
0b!
1Q!
0D!
1Z!
1H!
1@!
0P!
1n!
1_!
0H!
0o!
#640000
0"
0f
#645000
1"
1f
#650000
1'
0"
1x
0f
#655000
1"
1f
#660000
0$
0"
0p
0f
0c!
1!!
0{
1`!
1d!
#665000
1"
1f
1e!
0|
1t
1,!
0!!
0}
1/!
0U!
0'!
1m!
0_!
0^!
01!
0j!
0W!
0X!
1K!
10!
0)!
1:!
0(!
1b!
0k!
1M!
0C!
0;!
0Z!
0@!
03!
0Q!
1D!
1a!
0n!
0b!
#670000
0"
0f
#675000
1"
1f
#680000
1$
0"
1p
0f
1f!
1c!
0t
0`!
1g!
0d!
#685000
1"
1f
1h!
0e!
1Y!
1T!
1G!
1?!
12!
11!
1#!
0f!
1{
1$!
1H!
0g!
1>!
1'!
0a!
00!
1)!
0:!
1(!
1o!
1b!
1C!
1;!
13!
0D!
#690000
0"
0f
#695000
1"
1f
0h!
1|
1$#
1e
0Y!
0T!
0G!
0?!
01!
0#!
0,!
1}
17!
1C
0$!
0/!
0>!
1%!
19!
0H!
1U!
0%!
1^!
02!
11!
1]!
0K!
1N!
0F!
0V!
1D!
10!
1<!
0)!
1:!
0(!
0]!
1j!
0O!
0N!
1F!
1V!
0D!
0^!
0M!
01!
1=!
0C!
0;!
03!
1H!
1@!
1^!
11!
1k!
1P!
1O!
1X!
1W!
1Q!
1D!
0H!
0@!
0m!
0b!
1_!
0P!
1n!
1a!
1Z!
1H!
0o!
0a!
#700000
0"
0f
#705000
1"
1f
#710000
0"
0f
#715000
1"
1f
#720000
0$
0"
0p
0f
0c!
1!!
0{
1`!
1d!
#725000
1"
1f
1e!
0|
1t
1,!
0!!
0}
1/!
0U!
0'!
1m!
0_!
0^!
01!
0j!
0W!
0X!
1K!
1L!
00!
0<!
1)!
1(!
1b!
0k!
1M!
0=!
0Z!
0H!
0Q!
1a!
0n!
0b!
#730000
0"
0f
#735000
1"
1f
#740000
1$
0"
1p
0f
1f!
1c!
0t
0`!
1g!
0d!
#745000
1"
1f
1h!
0e!
1Y!
1T!
1G!
1?!
12!
11!
1#!
0f!
1{
1$!
1H!
13!
0g!
1>!
1'!
0a!
0L!
10!
1<!
0)!
0(!
1o!
1b!
1=!
03!
1@!
#750000
0"
0f
#755000
1"
1f
0h!
1|
0$#
1##
1d
0e
0Y!
0T!
0G!
0?!
01!
0#!
0,!
1}
07!
1A!
0C
1B
0$!
0/!
0>!
1%!
09!
1B!
0H!
0@!
13!
1U!
1>!
0%!
1^!
02!
11!
1]!
0K!
1N!
0F!
0D!
1L!
00!
0<!
1)!
0:!
1(!
0E!
0=!
1;!
0]!
1j!
1W!
0O!
1D!
1E!
1=!
0;!
1@!
0M!
1k!
1P!
0N!
1F!
1Z!
1H!
0@!
0m!
0b!
1Q!
1O!
1X!
1n!
1_!
0P!
0o!
#760000
0"
0f
#765000
1"
1f
#770000
0"
0f
#775000
1"
1f
#780000
0$
0"
0p
0f
0c!
1!!
0{
1`!
1d!
#785000
1"
1f
1e!
0|
1t
1,!
0!!
0}
1/!
0U!
0>!
0'!
1m!
0_!
0^!
01!
0j!
0W!
0X!
1K!
0)!
1:!
0(!
1b!
0k!
1M!
1;!
0Z!
0H!
03!
0Q!
1a!
0n!
0b!
#790000
0"
0f
#795000
1"
1f
#800000
0'
1$
0"
0x
1p
0f
1f!
1c!
0t
0`!
1g!
0d!
#805000
1"
1f
1h!
0e!
1Y!
1T!
1G!
1?!
12!
11!
1#!
0f!
1{
1$!
1H!
1@!
0g!
1>!
1'!
0a!
1)!
0:!
1(!
1o!
1b!
0;!
13!
#810000
0"
0f
#815000
1"
1f
0h!
1|
1$#
1e
0Y!
0T!
0G!
0?!
01!
0#!
0,!
1}
17!
1C
0$!
0/!
0>!
1%!
19!
0H!
0@!
1U!
1>!
0%!
1^!
02!
11!
1]!
0K!
1N!
0F!
0D!
1<!
0)!
1:!
0(!
0]!
1j!
1W!
0O!
0N!
1F!
1D!
0E!
0=!
1;!
03!
0M!
1k!
1P!
1O!
1X!
1N!
0F!
1a!
1Z!
1H!
1@!
0m!
0b!
1Q!
0P!
0O!
0X!
0o!
0a!
1o!
1n!
1_!
1P!
0o!
#820000
0"
0f
#825000
1"
1f
#830000
0"
0f
#835000
1"
1f
#840000
0$
0"
0p
0f
0c!
1!!
0{
1`!
1d!
#845000
1"
1f
1e!
0|
1t
1,!
0!!
0}
1/!
0U!
0>!
0'!
1m!
0_!
0^!
01!
0j!
0W!
1O!
1X!
1K!
0<!
1)!
1(!
1b!
0k!
0P!
1M!
1E!
1=!
0Z!
0H!
0@!
0Q!
0N!
1F!
1a!
0n!
0X!
0b!
#850000
0"
0f
#855000
1"
1f
#860000
1$
0"
1p
0f
1f!
1c!
0t
0`!
1g!
0d!
